{
	"totalResults": 153,
	"page": 1,
	"total_pages": 7,
	"more_pages": true,
	"data": [
		{
			"address": {
				"city": "Churchville",
				"state": "NY",
				"postal_code": "14428",
				"street": "12 South Main Street",
				"formatted": "12 South Main Street Churchville, NY 14428"
			},
			"cuisines": [
				""
			],
			"geo": {
				"lat": 43.104103,
				"lon": -77.884499
			},
			"item_id": "17853713479245882778",
			"menu_item_description": "3 pieces.",
			"menu_item_name": "Fantail Shrimp",
			"menu_item_pricing": [
				{
					"price": 3.25,
					"currency": "USD",
					"priceString": "$3.25"
				}
			],
			"menu_item_price": 3.25,
			"price_range": "",
			"restaurant_hours": "",
			"restaurant_id": 4310410377884499,
			"restaurant_name": "Sunny Garden",
			"restaurant_phone": "(585) 293-3218",
			"subsection": "Appetizers",
			"subsection_description": ""
		},
		{
			"address": {
				"city": "Churchville",
				"state": "NY",
				"postal_code": "14428",
				"street": "12 South Main Street",
				"formatted": "12 South Main Street Churchville, NY 14428"
			},
			"cuisines": [
				""
			],
			"geo": {
				"lat": 43.104103,
				"lon": -77.884499
			},
			"item_id": "16885119045734627963",
			"menu_item_description": "",
			"menu_item_name": "Fried Dumplings",
			"menu_item_pricing": [
				{
					"price": 5.25,
					"currency": "USD",
					"priceString": "$5.25"
				}
			],
			"menu_item_price": 5.25,
			"price_range": "",
			"restaurant_hours": "",
			"restaurant_id": 4310410377884499,
			"restaurant_name": "Sunny Garden",
			"restaurant_phone": "(585) 293-3218",
			"subsection": "Appetizers",
			"subsection_description": ""
		},
		{
			"address": {
				"city": "Churchville",
				"state": "NY",
				"postal_code": "14428",
				"street": "12 South Main Street",
				"formatted": "12 South Main Street Churchville, NY 14428"
			},
			"cuisines": [
				""
			],
			"geo": {
				"lat": 43.104103,
				"lon": -77.884499
			},
			"item_id": "5151524661412318923",
			"menu_item_description": "Served hot and spicy.",
			"menu_item_name": "Szechuan Wonton",
			"menu_item_pricing": [
				{
					"price": 4.75,
					"currency": "USD",
					"priceString": "$4.75"
				}
			],
			"menu_item_price": 4.75,
			"price_range": "",
			"restaurant_hours": "",
			"restaurant_id": 4310410377884499,
			"restaurant_name": "Sunny Garden",
			"restaurant_phone": "(585) 293-3218",
			"subsection": "Appetizers",
			"subsection_description": ""
		},
		{
			"address": {
				"city": "Churchville",
				"state": "NY",
				"postal_code": "14428",
				"street": "12 South Main Street",
				"formatted": "12 South Main Street Churchville, NY 14428"
			},
			"cuisines": [
				""
			],
			"geo": {
				"lat": 43.104103,
				"lon": -77.884499
			},
			"item_id": "875519645445820303",
			"menu_item_description": "For 2. beef on stick, fantail shrimp, fried wonton, chicken wings and egg roll, spare ribs and shrimp toast.",
			"menu_item_name": "Pu Pu Platter",
			"menu_item_pricing": [
				{
					"price": 13.95,
					"currency": "USD",
					"priceString": "$13.95"
				}
			],
			"menu_item_price": 13.95,
			"price_range": "",
			"restaurant_hours": "",
			"restaurant_id": 4310410377884499,
			"restaurant_name": "Sunny Garden",
			"restaurant_phone": "(585) 293-3218",
			"subsection": "Appetizers",
			"subsection_description": ""
		},
		{
			"address": {
				"city": "Churchville",
				"state": "NY",
				"postal_code": "14428",
				"street": "12 South Main Street",
				"formatted": "12 South Main Street Churchville, NY 14428"
			},
			"cuisines": [
				""
			],
			"geo": {
				"lat": 43.104103,
				"lon": -77.884499
			},
			"item_id": "6904879946067567196",
			"menu_item_description": "",
			"menu_item_name": "Egg Drop Soup",
			"menu_item_pricing": [
				{
					"price": 1.75,
					"currency": "USD",
					"priceString": "$1.75"
				},
				{
					"price": 2.95,
					"currency": "USD",
					"priceString": "$2.95"
				}
			],
			"menu_item_price": 1.75,
			"price_range": "",
			"restaurant_hours": "",
			"restaurant_id": 4310410377884499,
			"restaurant_name": "Sunny Garden",
			"restaurant_phone": "(585) 293-3218",
			"subsection": "Soups",
			"subsection_description": ""
		},
		{
			"address": {
				"city": "Churchville",
				"state": "NY",
				"postal_code": "14428",
				"street": "12 South Main Street",
				"formatted": "12 South Main Street Churchville, NY 14428"
			},
			"cuisines": [
				""
			],
			"geo": {
				"lat": 43.104103,
				"lon": -77.884499
			},
			"item_id": "7588655118676703597",
			"menu_item_description": "",
			"menu_item_name": "Wonton Egg Drop Soup",
			"menu_item_pricing": [
				{
					"price": 1.95,
					"currency": "USD",
					"priceString": "$1.95"
				},
				{
					"price": 3.45,
					"currency": "USD",
					"priceString": "$3.45"
				}
			],
			"menu_item_price": 1.95,
			"price_range": "",
			"restaurant_hours": "",
			"restaurant_id": 4310410377884499,
			"restaurant_name": "Sunny Garden",
			"restaurant_phone": "(585) 293-3218",
			"subsection": "Soups",
			"subsection_description": ""
		},
		{
			"address": {
				"city": "Churchville",
				"state": "NY",
				"postal_code": "14428",
				"street": "12 South Main Street",
				"formatted": "12 South Main Street Churchville, NY 14428"
			},
			"cuisines": [
				""
			],
			"geo": {
				"lat": 43.104103,
				"lon": -77.884499
			},
			"item_id": "15882082536522156364",
			"menu_item_description": "",
			"menu_item_name": "House Special Soup",
			"menu_item_pricing": [
				{
					"price": 4.75,
					"currency": "USD",
					"priceString": "$4.75"
				}
			],
			"menu_item_price": 4.75,
			"price_range": "",
			"restaurant_hours": "",
			"restaurant_id": 4310410377884499,
			"restaurant_name": "Sunny Garden",
			"restaurant_phone": "(585) 293-3218",
			"subsection": "Soups",
			"subsection_description": ""
		},
		{
			"address": {
				"city": "Churchville",
				"state": "NY",
				"postal_code": "14428",
				"street": "12 South Main Street",
				"formatted": "12 South Main Street Churchville, NY 14428"
			},
			"cuisines": [
				""
			],
			"geo": {
				"lat": 43.104103,
				"lon": -77.884499
			},
			"item_id": "15635291605659620674",
			"menu_item_description": "",
			"menu_item_name": "House Special Mei Fun",
			"menu_item_pricing": [
				{
					"price": 7.55,
					"currency": "USD",
					"priceString": "$7.55"
				}
			],
			"menu_item_price": 7.55,
			"price_range": "",
			"restaurant_hours": "",
			"restaurant_id": 4310410377884499,
			"restaurant_name": "Sunny Garden",
			"restaurant_phone": "(585) 293-3218",
			"subsection": "Mai Fun",
			"subsection_description": ""
		},
		{
			"address": {
				"city": "Churchville",
				"state": "NY",
				"postal_code": "14428",
				"street": "12 South Main Street",
				"formatted": "12 South Main Street Churchville, NY 14428"
			},
			"cuisines": [
				""
			],
			"geo": {
				"lat": 43.104103,
				"lon": -77.884499
			},
			"item_id": "9068537176771150597",
			"menu_item_description": "4 pieces. Plian.",
			"menu_item_name": "Fried Chicken Wings",
			"menu_item_pricing": [
				{
					"price": 5.25,
					"currency": "USD",
					"priceString": "$5.25"
				}
			],
			"menu_item_price": 5.25,
			"price_range": "",
			"restaurant_hours": "",
			"restaurant_id": 4310410377884499,
			"restaurant_name": "Sunny Garden",
			"restaurant_phone": "(585) 293-3218",
			"subsection": "Mai Fun",
			"subsection_description": ""
		},
		{
			"address": {
				"city": "Churchville",
				"state": "NY",
				"postal_code": "14428",
				"street": "12 South Main Street",
				"formatted": "12 South Main Street Churchville, NY 14428"
			},
			"cuisines": [
				""
			],
			"geo": {
				"lat": 43.104103,
				"lon": -77.884499
			},
			"item_id": "3218578726384954656",
			"menu_item_description": "Served with white rice.",
			"menu_item_name": "Vegetable Chow Mein",
			"menu_item_pricing": [
				{
					"price": 5.35,
					"currency": "USD",
					"priceString": "$5.35"
				},
				{
					"price": 8.75,
					"currency": "USD",
					"priceString": "$8.75"
				}
			],
			"menu_item_price": 5.35,
			"price_range": "",
			"restaurant_hours": "",
			"restaurant_id": 4310410377884499,
			"restaurant_name": "Sunny Garden",
			"restaurant_phone": "(585) 293-3218",
			"subsection": "Chow Mein",
			"subsection_description": ""
		},
		{
			"address": {
				"city": "Churchville",
				"state": "NY",
				"postal_code": "14428",
				"street": "12 South Main Street",
				"formatted": "12 South Main Street Churchville, NY 14428"
			},
			"cuisines": [
				""
			],
			"geo": {
				"lat": 43.104103,
				"lon": -77.884499
			},
			"item_id": "7802299918229031464",
			"menu_item_description": "Served with white rice.",
			"menu_item_name": "Chicken Chow Mein",
			"menu_item_pricing": [
				{
					"price": 5.35,
					"currency": "USD",
					"priceString": "$5.35"
				},
				{
					"price": 8.75,
					"currency": "USD",
					"priceString": "$8.75"
				}
			],
			"menu_item_price": 5.35,
			"price_range": "",
			"restaurant_hours": "",
			"restaurant_id": 4310410377884499,
			"restaurant_name": "Sunny Garden",
			"restaurant_phone": "(585) 293-3218",
			"subsection": "Chow Mein",
			"subsection_description": ""
		},
		{
			"address": {
				"city": "Churchville",
				"state": "NY",
				"postal_code": "14428",
				"street": "12 South Main Street",
				"formatted": "12 South Main Street Churchville, NY 14428"
			},
			"cuisines": [
				""
			],
			"geo": {
				"lat": 43.104103,
				"lon": -77.884499
			},
			"item_id": "16895356064621184651",
			"menu_item_description": "Served with white rice.",
			"menu_item_name": "Roast Pork Chow Mein",
			"menu_item_pricing": [
				{
					"price": 5.35,
					"currency": "USD",
					"priceString": "$5.35"
				},
				{
					"price": 8.75,
					"currency": "USD",
					"priceString": "$8.75"
				}
			],
			"menu_item_price": 5.35,
			"price_range": "",
			"restaurant_hours": "",
			"restaurant_id": 4310410377884499,
			"restaurant_name": "Sunny Garden",
			"restaurant_phone": "(585) 293-3218",
			"subsection": "Chow Mein",
			"subsection_description": ""
		},
		{
			"address": {
				"city": "Churchville",
				"state": "NY",
				"postal_code": "14428",
				"street": "12 South Main Street",
				"formatted": "12 South Main Street Churchville, NY 14428"
			},
			"cuisines": [
				""
			],
			"geo": {
				"lat": 43.104103,
				"lon": -77.884499
			},
			"item_id": "16640764506571446496",
			"menu_item_description": "Soft noodles.",
			"menu_item_name": "Vegetable Lo Mein",
			"menu_item_pricing": [
				{
					"price": 4.85,
					"currency": "USD",
					"priceString": "$4.85"
				},
				{
					"price": 7.95,
					"currency": "USD",
					"priceString": "$7.95"
				}
			],
			"menu_item_price": 4.85,
			"price_range": "",
			"restaurant_hours": "",
			"restaurant_id": 4310410377884499,
			"restaurant_name": "Sunny Garden",
			"restaurant_phone": "(585) 293-3218",
			"subsection": "Lo Mein",
			"subsection_description": ""
		},
		{
			"address": {
				"city": "Churchville",
				"state": "NY",
				"postal_code": "14428",
				"street": "12 South Main Street",
				"formatted": "12 South Main Street Churchville, NY 14428"
			},
			"cuisines": [
				""
			],
			"geo": {
				"lat": 43.104103,
				"lon": -77.884499
			},
			"item_id": "14482288110581912134",
			"menu_item_description": "Soft noodles.",
			"menu_item_name": "Chicken Lo Mein",
			"menu_item_pricing": [
				{
					"price": 4.85,
					"currency": "USD",
					"priceString": "$4.85"
				},
				{
					"price": 7.95,
					"currency": "USD",
					"priceString": "$7.95"
				}
			],
			"menu_item_price": 4.85,
			"price_range": "",
			"restaurant_hours": "",
			"restaurant_id": 4310410377884499,
			"restaurant_name": "Sunny Garden",
			"restaurant_phone": "(585) 293-3218",
			"subsection": "Lo Mein",
			"subsection_description": ""
		},
		{
			"address": {
				"city": "Churchville",
				"state": "NY",
				"postal_code": "14428",
				"street": "12 South Main Street",
				"formatted": "12 South Main Street Churchville, NY 14428"
			},
			"cuisines": [
				""
			],
			"geo": {
				"lat": 43.104103,
				"lon": -77.884499
			},
			"item_id": "17543085960636984086",
			"menu_item_description": "Shrimp, chicken and pork. Soft noodles.",
			"menu_item_name": "House Special Lo Mein",
			"menu_item_pricing": [
				{
					"price": 5.25,
					"currency": "USD",
					"priceString": "$5.25"
				},
				{
					"price": 8.75,
					"currency": "USD",
					"priceString": "$8.75"
				}
			],
			"menu_item_price": 5.25,
			"price_range": "",
			"restaurant_hours": "",
			"restaurant_id": 4310410377884499,
			"restaurant_name": "Sunny Garden",
			"restaurant_phone": "(585) 293-3218",
			"subsection": "Lo Mein",
			"subsection_description": ""
		},
		{
			"address": {
				"city": "Churchville",
				"state": "NY",
				"postal_code": "14428",
				"street": "12 South Main Street",
				"formatted": "12 South Main Street Churchville, NY 14428"
			},
			"cuisines": [
				""
			],
			"geo": {
				"lat": 43.104103,
				"lon": -77.884499
			},
			"item_id": "10519812215257275727",
			"menu_item_description": "",
			"menu_item_name": "Wonton Soup",
			"menu_item_pricing": [
				{
					"price": 1.75,
					"currency": "USD",
					"priceString": "$1.75"
				},
				{
					"price": 2.95,
					"currency": "USD",
					"priceString": "$2.95"
				}
			],
			"menu_item_price": 1.75,
			"price_range": "",
			"restaurant_hours": "",
			"restaurant_id": 4310410377884499,
			"restaurant_name": "Sunny Garden",
			"restaurant_phone": "(585) 293-3218",
			"subsection": "Soups",
			"subsection_description": ""
		},
		{
			"address": {
				"city": "Churchville",
				"state": "NY",
				"postal_code": "14428",
				"street": "12 South Main Street",
				"formatted": "12 South Main Street Churchville, NY 14428"
			},
			"cuisines": [
				""
			],
			"geo": {
				"lat": 43.104103,
				"lon": -77.884499
			},
			"item_id": "4698647069606552308",
			"menu_item_description": "",
			"menu_item_name": "Hot & Sour Soup",
			"menu_item_pricing": [
				{
					"price": 1.95,
					"currency": "USD",
					"priceString": "$1.95"
				},
				{
					"price": 3.45,
					"currency": "USD",
					"priceString": "$3.45"
				}
			],
			"menu_item_price": 1.95,
			"price_range": "",
			"restaurant_hours": "",
			"restaurant_id": 4310410377884499,
			"restaurant_name": "Sunny Garden",
			"restaurant_phone": "(585) 293-3218",
			"subsection": "Soups",
			"subsection_description": ""
		},
		{
			"address": {
				"city": "Churchville",
				"state": "NY",
				"postal_code": "14428",
				"street": "12 South Main Street",
				"formatted": "12 South Main Street Churchville, NY 14428"
			},
			"cuisines": [
				""
			],
			"geo": {
				"lat": 43.104103,
				"lon": -77.884499
			},
			"item_id": "5075520067765865492",
			"menu_item_description": "",
			"menu_item_name": "Chicken Rice Soup",
			"menu_item_pricing": [
				{
					"price": 1.75,
					"currency": "USD",
					"priceString": "$1.75"
				},
				{
					"price": 2.95,
					"currency": "USD",
					"priceString": "$2.95"
				}
			],
			"menu_item_price": 1.75,
			"price_range": "",
			"restaurant_hours": "",
			"restaurant_id": 4310410377884499,
			"restaurant_name": "Sunny Garden",
			"restaurant_phone": "(585) 293-3218",
			"subsection": "Soups",
			"subsection_description": ""
		},
		{
			"address": {
				"city": "Churchville",
				"state": "NY",
				"postal_code": "14428",
				"street": "12 South Main Street",
				"formatted": "12 South Main Street Churchville, NY 14428"
			},
			"cuisines": [
				""
			],
			"geo": {
				"lat": 43.104103,
				"lon": -77.884499
			},
			"item_id": "3847137620929763486",
			"menu_item_description": "",
			"menu_item_name": "Chicken Noodle Soup",
			"menu_item_pricing": [
				{
					"price": 1.75,
					"currency": "USD",
					"priceString": "$1.75"
				},
				{
					"price": 2.95,
					"currency": "USD",
					"priceString": "$2.95"
				}
			],
			"menu_item_price": 1.75,
			"price_range": "",
			"restaurant_hours": "",
			"restaurant_id": 4310410377884499,
			"restaurant_name": "Sunny Garden",
			"restaurant_phone": "(585) 293-3218",
			"subsection": "Soups",
			"subsection_description": ""
		},
		{
			"address": {
				"city": "Churchville",
				"state": "NY",
				"postal_code": "14428",
				"street": "12 South Main Street",
				"formatted": "12 South Main Street Churchville, NY 14428"
			},
			"cuisines": [
				""
			],
			"geo": {
				"lat": 43.104103,
				"lon": -77.884499
			},
			"item_id": "10390919482302984269",
			"menu_item_description": "",
			"menu_item_name": "Chicken Mei Fun",
			"menu_item_pricing": [
				{
					"price": 6.95,
					"currency": "USD",
					"priceString": "$6.95"
				}
			],
			"menu_item_price": 6.95,
			"price_range": "",
			"restaurant_hours": "",
			"restaurant_id": 4310410377884499,
			"restaurant_name": "Sunny Garden",
			"restaurant_phone": "(585) 293-3218",
			"subsection": "Mai Fun",
			"subsection_description": ""
		},
		{
			"address": {
				"city": "Churchville",
				"state": "NY",
				"postal_code": "14428",
				"street": "12 South Main Street",
				"formatted": "12 South Main Street Churchville, NY 14428"
			},
			"cuisines": [
				""
			],
			"geo": {
				"lat": 43.104103,
				"lon": -77.884499
			},
			"item_id": "8434868566227383397",
			"menu_item_description": "",
			"menu_item_name": "Beef Chow Mein",
			"menu_item_pricing": [
				{
					"price": 5.35,
					"currency": "USD",
					"priceString": "$5.35"
				},
				{
					"price": 8.75,
					"currency": "USD",
					"priceString": "$8.75"
				}
			],
			"menu_item_price": 5.35,
			"price_range": "",
			"restaurant_hours": "",
			"restaurant_id": 4310410377884499,
			"restaurant_name": "Sunny Garden",
			"restaurant_phone": "(585) 293-3218",
			"subsection": "Chow Mein",
			"subsection_description": ""
		},
		{
			"address": {
				"city": "Churchville",
				"state": "NY",
				"postal_code": "14428",
				"street": "12 South Main Street",
				"formatted": "12 South Main Street Churchville, NY 14428"
			},
			"cuisines": [
				""
			],
			"geo": {
				"lat": 43.104103,
				"lon": -77.884499
			},
			"item_id": "17596123084209570475",
			"menu_item_description": "Soft noodles.",
			"menu_item_name": "Beef Lo Mein",
			"menu_item_pricing": [
				{
					"price": 5.25,
					"currency": "USD",
					"priceString": "$5.25"
				},
				{
					"price": 8.75,
					"currency": "USD",
					"priceString": "$8.75"
				}
			],
			"menu_item_price": 5.25,
			"price_range": "",
			"restaurant_hours": "",
			"restaurant_id": 4310410377884499,
			"restaurant_name": "Sunny Garden",
			"restaurant_phone": "(585) 293-3218",
			"subsection": "Lo Mein",
			"subsection_description": ""
		},
		{
			"address": {
				"city": "Churchville",
				"state": "NY",
				"postal_code": "14428",
				"street": "12 South Main Street",
				"formatted": "12 South Main Street Churchville, NY 14428"
			},
			"cuisines": [
				""
			],
			"geo": {
				"lat": 43.104103,
				"lon": -77.884499
			},
			"item_id": "17850876936083787595",
			"menu_item_description": "Served with white rice.",
			"menu_item_name": "Vegetable Egg Foo Young",
			"menu_item_pricing": [
				{
					"price": 7.55,
					"currency": "USD",
					"priceString": "$7.55"
				}
			],
			"menu_item_price": 7.55,
			"price_range": "",
			"restaurant_hours": "",
			"restaurant_id": 4310410377884499,
			"restaurant_name": "Sunny Garden",
			"restaurant_phone": "(585) 293-3218",
			"subsection": "Egg Foo Young",
			"subsection_description": ""
		},
		{
			"address": {
				"city": "Churchville",
				"state": "NY",
				"postal_code": "14428",
				"street": "12 South Main Street",
				"formatted": "12 South Main Street Churchville, NY 14428"
			},
			"cuisines": [
				""
			],
			"geo": {
				"lat": 43.104103,
				"lon": -77.884499
			},
			"item_id": "13932181873714716427",
			"menu_item_description": "Served with white rice.",
			"menu_item_name": "Chicken Egg Foo Young",
			"menu_item_pricing": [
				{
					"price": 7.85,
					"currency": "USD",
					"priceString": "$7.85"
				}
			],
			"menu_item_price": 7.85,
			"price_range": "",
			"restaurant_hours": "",
			"restaurant_id": 4310410377884499,
			"restaurant_name": "Sunny Garden",
			"restaurant_phone": "(585) 293-3218",
			"subsection": "Egg Foo Young",
			"subsection_description": ""
		},
		{
			"address": {
				"city": "Churchville",
				"state": "NY",
				"postal_code": "14428",
				"street": "12 South Main Street",
				"formatted": "12 South Main Street Churchville, NY 14428"
			},
			"cuisines": [
				""
			],
			"geo": {
				"lat": 43.104103,
				"lon": -77.884499
			},
			"item_id": "17405544850206208251",
			"menu_item_description": "Served with white rice.",
			"menu_item_name": "Pork Egg Foo Young",
			"menu_item_pricing": [
				{
					"price": 7.85,
					"currency": "USD",
					"priceString": "$7.85"
				}
			],
			"menu_item_price": 7.85,
			"price_range": "",
			"restaurant_hours": "",
			"restaurant_id": 4310410377884499,
			"restaurant_name": "Sunny Garden",
			"restaurant_phone": "(585) 293-3218",
			"subsection": "Egg Foo Young",
			"subsection_description": ""
		}
	],
	"numResults": 25
}