{
	"totalResults": 54822,
	"page": "549",
	"total_pages": 549,
	"more_pages": false,
	"data": [
		{
			"restaurant_name": "Lederhosen",
			"restaurant_phone": "(212) 206-7691",
			"restaurant_website": "http://www.lederhosennyc.com/",
			"hours": "Mon: 4pm-11pm Tue-Sat: 12pm-12am Sun: 1pm-10pm ",
			"price_range": "$$",
			"price_range_num": 2,
			"restaurant_id": 4073280274004419,
			"cuisines": [
				"German"
			],
			"address": {
				"city": "New York",
				"state": "NY",
				"postal_code": "10014",
				"street": "39 Grove St",
				"formatted": "39 Grove St New York, NY 10014"
			},
			"geo": {
				"lat": 40.732802,
				"lon": -74.004419
			},
			"menus": [],
			"last_updated": "2020-12-28T23:10:36.120Z"
		},
		{
			"restaurant_name": "Quinto Quarto",
			"restaurant_phone": "(212) 675-9080",
			"restaurant_website": "http://www.quintoquarto.com/index-en.asp",
			"hours": "Mon-Thu: 5pm-11:30pm Fri-Sat: 5pm-12am Sun: 5pm-11pm",
			"price_range": "$$",
			"price_range_num": 2,
			"restaurant_id": 4072915474003334,
			"cuisines": [
				"Italian"
			],
			"address": {
				"city": "NEW YORK",
				"state": "NY",
				"postal_code": "10014",
				"street": "14 Bedford St",
				"formatted": "14 Bedford St NEW YORK, NY 10014"
			},
			"geo": {
				"lat": 40.729154,
				"lon": -74.003334
			},
			"menus": [],
			"last_updated": "2020-12-28T23:10:37.129Z"
		},
		{
			"restaurant_name": "Joseph Leonard",
			"restaurant_phone": "(646) 429-8383",
			"restaurant_website": "",
			"hours": "Lunch Mon-Fri: 11:30am-3:30pm Afternoon Mon-Fri: 3:30pm-5:30pm Sat-Sun: 4pm-6pm Dinner Mon-Fri: 5:30pm-12am Sat-Sun: 6pm-12am Brunch Sat-Sun: 9am-4pm Late Night Tue-Sat: 12am-2am",
			"price_range": "$$",
			"price_range_num": 2,
			"restaurant_id": 4073399474001357,
			"cuisines": [
				"American (New)"
			],
			"address": {
				"city": "New York",
				"state": "NY",
				"postal_code": "10014",
				"street": "170 Waverly Pl",
				"formatted": "170 Waverly Pl New York, NY 10014"
			},
			"geo": {
				"lat": 40.733994,
				"lon": -74.001357
			},
			"menus": [],
			"last_updated": "2020-12-28T23:10:36.514Z"
		},
		{
			"restaurant_name": "Copper Chimney",
			"restaurant_phone": "(212) 213-5742",
			"restaurant_website": "",
			"hours": "Lunch Mon-Fri: 12pm-3pm Dinner Mon-Fri: 5:30pm-11pm Sat-Sun: 12pm-11:30pm",
			"price_range": "$$",
			"price_range_num": 2,
			"restaurant_id": 4074267773983077,
			"cuisines": [
				"Indian"
			],
			"address": {
				"city": "New York",
				"state": "NY",
				"postal_code": "10016",
				"street": "126 E 28th St",
				"formatted": "126 E 28th St New York, NY 10016"
			},
			"geo": {
				"lat": 40.742677,
				"lon": -73.983077
			},
			"menus": [],
			"last_updated": "2020-12-28T23:10:37.457Z"
		},
		{
			"restaurant_name": "Employees Only",
			"restaurant_phone": "(212) 242-3021",
			"restaurant_website": "http://www.employeesonlynyc.com/",
			"hours": "Daily: 6pm-3:30am",
			"price_range": "$$$",
			"price_range_num": 3,
			"restaurant_id": 4073343574006066,
			"cuisines": [
				"American (New)",
				"Cocktails"
			],
			"address": {
				"city": "New York",
				"state": "NY",
				"postal_code": "10014",
				"street": "510 Hudson St",
				"formatted": "510 Hudson St New York, NY 10014"
			},
			"geo": {
				"lat": 40.733435,
				"lon": -74.006066
			},
			"menus": [],
			"last_updated": "2020-12-28T23:10:36.275Z"
		},
		{
			"restaurant_name": "Bongo",
			"restaurant_phone": "(212) 675-6555",
			"restaurant_website": "http://www.bongonyc.com/",
			"hours": "Tue-Wed: 5pm-12am Thu-Sat: 5pm-2am",
			"price_range": "$$",
			"price_range_num": 2,
			"restaurant_id": 4075052374002540,
			"cuisines": [
				"Seafood"
			],
			"address": {
				"city": "New York",
				"state": "NY",
				"postal_code": "10014",
				"street": "395 West St",
				"formatted": "395 West St New York, NY 10014"
			},
			"geo": {
				"lat": 40.750523,
				"lon": -74.00254
			},
			"menus": [],
			"last_updated": "2020-12-28T23:10:36.345Z"
		},
		{
			"restaurant_name": "Casa La Femme",
			"restaurant_phone": "(212) 505-0005",
			"restaurant_website": "http://www.casalafemmeny.com/",
			"hours": "Mon-Wed: 5pm-12am Thu: 5pm-1am Fri: 5pm-3am Sat: 12pm-3am Sun: 12pm-11pm ",
			"price_range": "$$",
			"price_range_num": 2,
			"restaurant_id": 4073413374008126,
			"cuisines": [
				"Mediterranean",
				"Middle Eastern"
			],
			"address": {
				"city": "New York",
				"state": "NY",
				"postal_code": "10014",
				"street": "140 Charles St",
				"formatted": "140 Charles St New York, NY 10014"
			},
			"geo": {
				"lat": 40.734133,
				"lon": -74.008126
			},
			"menus": [],
			"last_updated": "2020-12-28T23:10:37.447Z"
		},
		{
			"restaurant_name": "Baoguette",
			"restaurant_phone": "(212) 929-0877",
			"restaurant_website": "http://baoguette.com/",
			"hours": "",
			"price_range": "$",
			"price_range_num": 1,
			"restaurant_id": 4073297774005585,
			"cuisines": [
				"American",
				"Sandwiches",
				"Vietnamese"
			],
			"address": {
				"city": "NEW YORK",
				"state": "NY",
				"postal_code": "10014",
				"street": "120 Christopher St",
				"formatted": "120 Christopher St NEW YORK, NY 10014"
			},
			"geo": {
				"lat": 40.732977,
				"lon": -74.005585
			},
			"menus": [],
			"last_updated": "2020-12-28T23:10:36.397Z"
		},
		{
			"restaurant_name": "Parisi Bakery",
			"restaurant_phone": "(212) 226-6378",
			"restaurant_website": "",
			"hours": "Mon-Sat: 7am-5pm ",
			"price_range": "$",
			"price_range_num": 1,
			"restaurant_id": 4072121673995434,
			"cuisines": [
				"Bakery & Pastries",
				"Italian",
				"Sandwiches"
			],
			"address": {
				"city": "New York",
				"state": "NY",
				"postal_code": "10012",
				"street": "198 Mott St",
				"formatted": "198 Mott St New York, NY 10012"
			},
			"geo": {
				"lat": 40.721216,
				"lon": -73.995434
			},
			"menus": [],
			"last_updated": "2020-12-28T23:10:36.686Z"
		},
		{
			"restaurant_name": "Touch Of India",
			"restaurant_phone": "(212) 564-2383",
			"restaurant_website": "http://www.touchofindiany.com/showpage.asp?pid=menu",
			"hours": "Mon-Fri: 11:30am-10:30pm Sat-Sun: 11:30am-9pm",
			"price_range": "$",
			"price_range_num": 1,
			"restaurant_id": 4075326273990710,
			"cuisines": [
				"Asian",
				"Healthy",
				"Indian",
				"Vegetarian"
			],
			"address": {
				"city": "NEW YORK",
				"state": "NY",
				"postal_code": "10018",
				"street": "232 W 37th St",
				"formatted": "232 W 37th St NEW YORK, NY 10018"
			},
			"geo": {
				"lat": 40.753262,
				"lon": -73.99071
			},
			"menus": [],
			"last_updated": "2020-12-28T23:10:38.336Z"
		},
		{
			"restaurant_name": "Flex Mussels",
			"restaurant_phone": "(212) 717-7772",
			"restaurant_website": "",
			"hours": "Mon-Thu: 5:30pm-11pm Fri: 5:30pm-11:30pm Sat: 5pm-11:30pm Sun: 5pm-10pm",
			"price_range": "$$",
			"price_range_num": 2,
			"restaurant_id": 4077631773956620,
			"cuisines": [
				"Eclectic & International",
				"Seafood"
			],
			"address": {
				"city": "New York",
				"state": "NY",
				"postal_code": "10028",
				"street": "174 E 82nd St",
				"formatted": "174 E 82nd St New York, NY 10028"
			},
			"geo": {
				"lat": 40.776317,
				"lon": -73.95662
			},
			"menus": [],
			"last_updated": "2020-12-28T23:10:38.304Z"
		},
		{
			"restaurant_name": "Fay Da Bakery",
			"restaurant_phone": "(212) 791-3884",
			"restaurant_website": "http://www.fayda.com/",
			"hours": "Daily: 7am-8:30pm",
			"price_range": "$",
			"price_range_num": 1,
			"restaurant_id": 4071668673998081,
			"cuisines": [
				"Bakery & Pastries",
				"Chinese"
			],
			"address": {
				"city": "New York",
				"state": "NY",
				"postal_code": "10013",
				"street": "83 Mott St",
				"formatted": "83 Mott St New York, NY 10013"
			},
			"geo": {
				"lat": 40.716686,
				"lon": -73.998081
			},
			"menus": [],
			"last_updated": "2020-12-28T23:10:38.911Z"
		},
		{
			"restaurant_name": "Bar Pitti",
			"restaurant_phone": "(212) 982-3300",
			"restaurant_website": "",
			"hours": "Daily: 12pm-12am",
			"price_range": "$$",
			"price_range_num": 2,
			"restaurant_id": 4072907874001974,
			"cuisines": [
				"Italian"
			],
			"address": {
				"city": "New York",
				"state": "NY",
				"postal_code": "10014",
				"street": "268 6th Ave",
				"formatted": "268 6th Ave New York, NY 10014"
			},
			"geo": {
				"lat": 40.729078,
				"lon": -74.001974
			},
			"menus": [],
			"last_updated": "2020-12-28T23:10:38.525Z"
		},
		{
			"restaurant_name": "Alpha Fusion",
			"restaurant_phone": "(212) 279-8887",
			"restaurant_website": "",
			"hours": "Mon-Fri: 11:30am-4pm+5pm-11pm Sat-Sun: 12pm-11pm",
			"price_range": "$$",
			"price_range_num": 2,
			"restaurant_id": 4075335073995796,
			"cuisines": [
				"Asian Fusion",
				"Sushi"
			],
			"address": {
				"city": "New York",
				"state": "NY",
				"postal_code": "10001",
				"street": "365 W 34th St",
				"formatted": "365 W 34th St New York, NY 10001"
			},
			"geo": {
				"lat": 40.75335,
				"lon": -73.995796
			},
			"menus": [],
			"last_updated": "2020-12-28T23:10:38.096Z"
		},
		{
			"restaurant_name": "A La Turka",
			"restaurant_phone": "(212) 744-2424",
			"restaurant_website": "",
			"hours": "Daily: 11am-11pm",
			"price_range": "$$",
			"price_range_num": 2,
			"restaurant_id": 4077004973957455,
			"cuisines": [
				"Mediterranean",
				"Turkish"
			],
			"address": {
				"city": "New York",
				"state": "NY",
				"postal_code": "10021",
				"street": "1417 2nd Ave",
				"formatted": "1417 2nd Ave New York, NY 10021"
			},
			"geo": {
				"lat": 40.770049,
				"lon": -73.957455
			},
			"menus": [],
			"last_updated": "2020-12-28T23:10:38.726Z"
		},
		{
			"restaurant_name": "Tribeca Bagels",
			"restaurant_phone": "(212) 226-8518",
			"restaurant_website": "",
			"hours": "Daily: 24 hours",
			"price_range": "$",
			"price_range_num": 1,
			"restaurant_id": 4072093774004291,
			"cuisines": [
				"American",
				"Bagels"
			],
			"address": {
				"city": "New York",
				"state": "NY",
				"postal_code": "10013",
				"street": "374 Canal St",
				"formatted": "374 Canal St New York, NY 10013"
			},
			"geo": {
				"lat": 40.720937,
				"lon": -74.004291
			},
			"menus": [],
			"last_updated": "2020-12-28T23:10:38.519Z"
		},
		{
			"restaurant_name": "Bao Bao",
			"restaurant_phone": "(212) 501-0776",
			"restaurant_website": "",
			"hours": "",
			"price_range": "$$",
			"price_range_num": 2,
			"restaurant_id": 4078391473974090,
			"cuisines": [
				"Vietnamese"
			],
			"address": {
				"city": "NEW YORK",
				"state": "NY",
				"postal_code": "10024",
				"street": "100 W 82nd St",
				"formatted": "100 W 82nd St NEW YORK, NY 10024"
			},
			"geo": {
				"lat": 40.783914,
				"lon": -73.97409
			},
			"menus": [],
			"last_updated": "2020-12-28T23:10:38.431Z"
		},
		{
			"restaurant_name": "Palermo Pizza",
			"restaurant_phone": "(212) 732-5627",
			"restaurant_website": "",
			"hours": "Mon-Wed: 10am-9:30pm Thu-Sat: 10am-11:30pm Sun: 10am-6pm",
			"price_range": "$$",
			"price_range_num": 2,
			"restaurant_id": 4071433574009997,
			"cuisines": [
				"Italian",
				"Pizza"
			],
			"address": {
				"city": "New York",
				"state": "NY",
				"postal_code": "10007",
				"street": "61 Murray St",
				"formatted": "61 Murray St New York, NY 10007"
			},
			"geo": {
				"lat": 40.714335,
				"lon": -74.009997
			},
			"menus": [],
			"last_updated": "2020-12-28T23:10:38.241Z"
		},
		{
			"restaurant_name": "The Redhead",
			"restaurant_phone": "(212) 533-6212",
			"restaurant_website": "",
			"hours": "Daily: 4pm-2am ",
			"price_range": "$$",
			"price_range_num": 2,
			"restaurant_id": 4073096173983387,
			"cuisines": [
				"American (New)",
				"Bar Food",
				"Gastropub"
			],
			"address": {
				"city": "New York",
				"state": "NY",
				"postal_code": "10003",
				"street": "349 E 13th St",
				"formatted": "349 E 13th St New York, NY 10003"
			},
			"geo": {
				"lat": 40.730961,
				"lon": -73.983387
			},
			"menus": [],
			"last_updated": "2020-12-28T23:10:38.489Z"
		},
		{
			"restaurant_name": "Dukes",
			"restaurant_phone": "(212) 260-2922",
			"restaurant_website": "",
			"hours": "Lunch Daily: 12pm-5pm Dinner Daily: 5pm-11pm",
			"price_range": "$$",
			"price_range_num": 2,
			"restaurant_id": 4073777473988249,
			"cuisines": [
				"American",
				"Burgers",
				"Chicken",
				"Sandwiches",
				"Wings"
			],
			"address": {
				"city": "NEW YORK",
				"state": "NY",
				"postal_code": "10003",
				"street": "99 E 19th St",
				"formatted": "99 E 19th St NEW YORK, NY 10003"
			},
			"geo": {
				"lat": 40.737774,
				"lon": -73.988249
			},
			"menus": [],
			"last_updated": "2020-12-28T23:10:38.794Z"
		},
		{
			"restaurant_name": "Zorzi",
			"restaurant_phone": "(212) 213-9167",
			"restaurant_website": "",
			"hours": "Lunch: Mon-Fri: 11am-3pm Sat-Sun: 11am-4pm Dinner: Mon-Sat: 5:30pm-11pm Sun: 5:30pm-10:30pm",
			"price_range": "$$$",
			"price_range_num": 3,
			"restaurant_id": 4074905873983394,
			"cuisines": [
				"Italian"
			],
			"address": {
				"city": "NEW YORK",
				"state": "NY",
				"postal_code": "10016",
				"street": "1 E 35th St",
				"formatted": "1 E 35th St NEW YORK, NY 10016"
			},
			"geo": {
				"lat": 40.749058,
				"lon": -73.983394
			},
			"menus": [],
			"last_updated": "2020-12-28T23:10:39.154Z"
		},
		{
			"restaurant_name": "Mei Li Wah",
			"restaurant_phone": "(212) 925-5435",
			"restaurant_website": "",
			"hours": "Daily: 10am-10pm",
			"price_range": "$",
			"price_range_num": 1,
			"restaurant_id": 4071545373997993,
			"cuisines": [
				"Chinese",
				"Dim Sum"
			],
			"address": {
				"city": "New York",
				"state": "NY",
				"postal_code": "10013",
				"street": "64 Bayard St",
				"formatted": "64 Bayard St New York, NY 10013"
			},
			"geo": {
				"lat": 40.715453,
				"lon": -73.997993
			},
			"menus": [],
			"last_updated": "2020-12-28T23:10:39.302Z"
		}
	],
	"numResults": 22
}